\relax 
\providecommand\hyper@newdestlabel[2]{}
\providecommand*\new@tpo@label[2]{}
\abx@aux@sortscheme{none}
\abx@aux@refcontext{none/global/}
\providecommand\HyperFirstAtBeginDocument{\AtBeginDocument}
\HyperFirstAtBeginDocument{\ifx\hyper@anchor\@undefined
\global\let\oldcontentsline\contentsline
\gdef\contentsline#1#2#3#4{\oldcontentsline{#1}{#2}{#3}}
\global\let\oldnewlabel\newlabel
\gdef\newlabel#1#2{\newlabelxx{#1}#2}
\gdef\newlabelxx#1#2#3#4#5#6{\oldnewlabel{#1}{{#2}{#3}}}
\AtEndDocument{\ifx\hyper@anchor\@undefined
\let\contentsline\oldcontentsline
\let\newlabel\oldnewlabel
\fi}
\fi}
\global\let\hyper@last\relax 
\gdef\HyperFirstAtBeginDocument#1{#1}
\providecommand\HyField@AuxAddToFields[1]{}
\providecommand\HyField@AuxAddToCoFields[2]{}
\@writefile{toc}{\boolfalse {citerequest}\boolfalse {citetracker}\boolfalse {pagetracker}\boolfalse {backtracker}\relax }
\@writefile{lof}{\boolfalse {citerequest}\boolfalse {citetracker}\boolfalse {pagetracker}\boolfalse {backtracker}\relax }
\@writefile{lot}{\boolfalse {citerequest}\boolfalse {citetracker}\boolfalse {pagetracker}\boolfalse {backtracker}\relax }
\select@language{british}
\@writefile{toc}{\defcounter {refsection}{0}\relax }\@writefile{toc}{\select@language{british}}
\@writefile{lof}{\defcounter {refsection}{0}\relax }\@writefile{lof}{\select@language{british}}
\@writefile{lot}{\defcounter {refsection}{0}\relax }\@writefile{lot}{\select@language{british}}
\@writefile{toc}{\contentsline {section}{\numberline {1}Simulation setup}{2}{section.1}}
\@writefile{toc}{\contentsline {section}{\numberline {2}Muon reconstruction and calibration}{2}{section.2}}
\@writefile{lof}{\contentsline {figure}{\numberline {1}{\ignorespaces Muon energy loss before reaching the muon detector as a function of $\eta $ of the muon with energies $E=100$~GeV (circles), 1~TeV (squares), 2~TeV (upward triangles) and 5~TeV (downward triangles).\relax }}{3}{figure.caption.1}}
\providecommand*\caption@xref[2]{\@setref\relax\@undefined{#1}}
\newlabel{fig:mu_ene_loss}{{1}{3}{Muon energy loss before reaching the muon detector as a function of $\eta $ of the muon with energies $E=100$~GeV (circles), 1~TeV (squares), 2~TeV (upward triangles) and 5~TeV (downward triangles).\relax }{figure.caption.1}{}}
\newlabel{fig:mu_ene_loss@cref}{{[figure][1][]1}{3}}
\@writefile{lof}{\contentsline {figure}{\numberline {2}{\ignorespaces Reconstructed muon $p_T$ distributions for muons with the generator-level $p_T$ at (a) 10, (b) 100 and (c) 500~GeV at different $\eta $ values. \relax }}{4}{figure.caption.2}}
\newlabel{fig:mu_pt_vs_eta}{{2}{4}{Reconstructed muon $p_T$ distributions for muons with the generator-level $p_T$ at (a) 10, (b) 100 and (c) 500~GeV at different $\eta $ values. \relax }{figure.caption.2}{}}
\newlabel{fig:mu_pt_vs_eta@cref}{{[figure][2][]2}{4}}
\@writefile{lof}{\contentsline {figure}{\numberline {3}{\ignorespaces Relative $p_T$ resolution for reconstructed muon as a function of muon $\eta $ for different generator-level $p_T$ values between 10 and 1000~GeV.\relax }}{5}{figure.caption.3}}
\newlabel{fig:mu_ptresol_vs_eta}{{3}{5}{Relative $p_T$ resolution for reconstructed muon as a function of muon $\eta $ for different generator-level $p_T$ values between 10 and 1000~GeV.\relax }{figure.caption.3}{}}
\newlabel{fig:mu_ptresol_vs_eta@cref}{{[figure][3][]3}{5}}
\@writefile{lof}{\contentsline {figure}{\numberline {4}{\ignorespaces Stand-alone muon reconstruction efficiency as a function of generator-level muon $p_T$ at different $\eta $ values between 0.0 and 0.8.\relax }}{5}{figure.caption.4}}
\newlabel{fig:mu_recoeff_vs_pt}{{4}{5}{Stand-alone muon reconstruction efficiency as a function of generator-level muon $p_T$ at different $\eta $ values between 0.0 and 0.8.\relax }{figure.caption.4}{}}
\newlabel{fig:mu_recoeff_vs_pt@cref}{{[figure][4][]4}{5}}
\@writefile{toc}{\contentsline {section}{\numberline {3}Muon trigger}{5}{section.3}}
\@writefile{lof}{\contentsline {figure}{\numberline {5}{\ignorespaces (a) Two dimensional correlation between $\Delta \phi $ or (b) $\Delta L$ measured at the muon detector and the inverse of the generator-level muon $p_T$ in the range between 10 and 100~GeV. Each curve on the distribution represent a second-order polynomial fit to extract the mapping between the observable and the true muon momentum used in the calibration.\relax }}{6}{figure.caption.5}}
\newlabel{fig:calib_var_vs_pt}{{5}{6}{(a) Two dimensional correlation between $\Delta \phi $ or (b) $\Delta L$ measured at the muon detector and the inverse of the generator-level muon $p_T$ in the range between 10 and 100~GeV. Each curve on the distribution represent a second-order polynomial fit to extract the mapping between the observable and the true muon momentum used in the calibration.\relax }{figure.caption.5}{}}
\newlabel{fig:calib_var_vs_pt@cref}{{[figure][5][]5}{6}}
\@writefile{toc}{\contentsline {section}{\numberline {4}Hadronic background with non-prompt muons}{6}{section.4}}
\@writefile{lof}{\contentsline {figure}{\numberline {6}{\ignorespaces Reconstructed muon momentum resolution, defined as a root-mean-square of the deviation from unity of the ratio of the inverse of the calibrated reconstructed $p_T$ to the inverse of the \ensuremath  {p_{T}^{\mu \text  {(truth)}}}, as a function of $1/\ensuremath  {p_{T}^{\mu \text  {(truth)}}}$ for the range between 10 and 100~GeV. The measurement is performed using the angles $\Delta \phi $ at the first and fourth layers or the transverse distance $\Delta L$ at the second and third layers of the muon detector.\relax }}{7}{figure.caption.6}}
\newlabel{fig:calib_ptresol_vs_pt}{{6}{7}{Reconstructed muon momentum resolution, defined as a root-mean-square of the deviation from unity of the ratio of the inverse of the calibrated reconstructed $p_T$ to the inverse of the \ptmutruth , as a function of $1/\ptmutruth $ for the range between 10 and 100~GeV. The measurement is performed using the angles $\Delta \phi $ at the first and fourth layers or the transverse distance $\Delta L$ at the second and third layers of the muon detector.\relax }{figure.caption.6}{}}
\newlabel{fig:calib_ptresol_vs_pt@cref}{{[figure][6][]6}{7}}
\@writefile{lof}{\contentsline {figure}{\numberline {7}{\ignorespaces Trigger efficiency for stand-alone muon reconstruction as a function of generator-level muon $p_T$ at different $\eta $ values. The efficiency is shown after the reconstructed muon $p_T$ is required to be larger than (a) 6, (b) 16 and (c) 25~GeV, which corresponds to a full ($>95$\%) trigger efficiency starting at the generator-level $p_T$ of (a) 10, (b) 20 and (c) 30~GeV.\relax }}{8}{figure.caption.7}}
\newlabel{fig:mu_trigeff_vs_pt}{{7}{8}{Trigger efficiency for stand-alone muon reconstruction as a function of generator-level muon $p_T$ at different $\eta $ values. The efficiency is shown after the reconstructed muon $p_T$ is required to be larger than (a) 6, (b) 16 and (c) 25~GeV, which corresponds to a full ($>95$\%) trigger efficiency starting at the generator-level $p_T$ of (a) 10, (b) 20 and (c) 30~GeV.\relax }{figure.caption.7}{}}
\newlabel{fig:mu_trigeff_vs_pt@cref}{{[figure][7][]7}{8}}
\@writefile{lof}{\contentsline {figure}{\numberline {8}{\ignorespaces Jet $\eta $ distributions within $0<\eta <2.5$ for inclusive (black histograms) and HF (red histograms) jets in dijet events normalized to the integrated luminosity of 1~pb$^{-1}$. The solid histograms show the distributions for all jets while the dashed histograms show only those with simulation hits in the muon detector. The dotted histograms show the distributions for only those with simulation hits and generator-level muons inside the jet.\relax }}{9}{figure.caption.8}}
\newlabel{fig:jet_eta_muhits}{{8}{9}{Jet $\eta $ distributions within $0<\eta <2.5$ for inclusive (black histograms) and HF (red histograms) jets in dijet events normalized to the integrated luminosity of 1~pb$^{-1}$. The solid histograms show the distributions for all jets while the dashed histograms show only those with simulation hits in the muon detector. The dotted histograms show the distributions for only those with simulation hits and generator-level muons inside the jet.\relax }{figure.caption.8}{}}
\newlabel{fig:jet_eta_muhits@cref}{{[figure][8][]8}{9}}
\@writefile{lof}{\contentsline {figure}{\numberline {9}{\ignorespaces (a) Generator-level muon $p_T$ distributions for all HF jets (solid histogram) and HF jets with the muon detector hits (shaded histogram). The HF jets with $|\eta |<2$ are selected. (b) Relative isolation distribution calculated from charged particles within the HF jet, as described in the text.\relax }}{10}{figure.caption.9}}
\newlabel{fig:mu_chgiso}{{9}{10}{(a) Generator-level muon $p_T$ distributions for all HF jets (solid histogram) and HF jets with the muon detector hits (shaded histogram). The HF jets with $|\eta |<2$ are selected. (b) Relative isolation distribution calculated from charged particles within the HF jet, as described in the text.\relax }{figure.caption.9}{}}
\newlabel{fig:mu_chgiso@cref}{{[figure][9][]9}{10}}
